Exploring 2020 across many variables including Covid-19
…
A common indicator of overall country development is the human development index which is a statistic of life expectancy, education, and per capita income, which is all used to grade human development. Since we do not have a grade for overall country development, we will use this index to create a categorical variable named country development which will be split into four different categories of development.

# To create the variable, use the mutate function with nested ifelse statements to pass through the human index variable
# If a condition is not met, send to the next condition is met
new_data<-new_data%>%
  mutate(country_development = ifelse(human_development_index<.45, "Under Developed",
         ifelse(human_development_index<.55, "Average Development",
         ifelse(human_development_index<.75, "Slightly Developed",
         ifelse(human_development_index<.85, "Above Avg. Development", "Extremely Developed")))))

new_data%>%
  select(country_development,Country)

## # A tibble: 176 × 2
##    country_development    Country      
##    <chr>                  <chr>        
##  1 Above Avg. Development China        
##  2 Slightly Developed     India        
##  3 Extremely Developed    United States
##  4 Slightly Developed     Indonesia    
##  5 Slightly Developed     Pakistan     
##  6 Above Avg. Development Brazil       
##  7 Average Development    Nigeria      
##  8 Slightly Developed     Bangladesh   
##  9 Above Avg. Development Russia       
## 10 Above Avg. Development Mexico       
## # … with 166 more rows
…
